{
"Plants": [{
	"plant": "Tomate",
	"family": "Gemüse",
	"care": "Braucht viel Sonne und Wasser.",
	"calendar": [{
		"kind": "Aussaat",
		"date": "Mai"
		},
		{
		"kind": "Ernte",
		"date": "September"
		}]
	},
	{
	"plant": "Gurke",
	"family": "Gemüse",
	"care": "Sehr pflegeleicht, braucht aber einen großen Topf.",
	"calendar": [{
		"kind": "Ernte",
		"date": "August"
		}]
	},
	{
	"plant": "Apfel",
	"family": "Obst",
	"care": "Winterhart. Sollte im Herbst zurückgeschnitten werden.",
	"calendar": [{
		"kind": "Ernte",
		"date": "Oktober"
	    }]
	}]
}